# No previous file for Brinkwick
owner = Z06
controller = Z06
add_core = Z06
culture = arannese
religion = regent_court

hre = yes

base_tax = 2
base_production = 3
base_manpower = 3

trade_goods = grain

capital = ""

is_city = yes






