#Kurland, center at Goldingen

owner = A29
controller = A29
add_core = A29
culture = busilari
religion = regent_court

hre = no

base_tax = 6
base_production = 5
base_manpower = 4

trade_goods = cloth

capital = ""

is_city = yes











