# No previous file for Pegu
owner = F37
controller = F37
add_core = F37
culture = sun_elf
religion = bulwari_sun_cult

hre = no

base_tax = 2
base_production = 5
base_manpower = 3

trade_goods = cotton

capital = ""

is_city = yes











add_permanent_province_modifier = {
	name = human_minority_coexisting_large
	duration = -1
}
