g_thieving_arrow_column_4 = {
	slot = 4
	generic = no
	ai = yes
	potential = {
		tag = H87
	}
	has_country_shield = yes

    g_a_clan_embattled = {
		icon = mission_fortify_rajputana
		position = 1
		required_missions = {

		}
		trigger = {
			OR = {
				army_professionalism = 0.03
				army_tradition = 16
			}

		}
		
		effect = {
			add_country_modifier = {
				name = cave_goblin_serpentreach_fights
				duration = 3650
			}
		}
	}
	g_a_skomdhir_way_we_go = {
		icon = mission_fortify_rajputana
		position = 2
		required_missions = {
			g_a_clan_embattled
		}
		trigger = {
			owns = 4100
			4100 = {
				is_core = FROM
				NOT = {
					has_province_modifier = ruined_hold
					has_province_modifier = partially_ruined_hold
					has_province_modifier = damaged_hold
				}
			}	
		}
		
		effect = {
			set_capital = 4100
			add_country_modifier = {
				name = cave_goblin_skomdihr_claiming
				duration = 5475
			}
		}
	}
	g_between_a_garnet_and_a_diamond_hard_place = {
		icon = mission_fortify_rajputana
		position = 3
		required_missions = {
			g_a_skomdhir_way_we_go
		}
		trigger = {
			army_size = 25
			OR = {
				any_known_country = {
					OR = {
						tag = H77
						tag = H76
						tag = H71
						tag = I16
					}
				}
				AND = {
					H77 = { exists = no }
					H76 = { exists = no }
					H71 = { exists = no }
					I16 = { exists = no }
				}
			}
			
		}
		
		effect = {
			H76 = {
				every_owned_province = {
					add_permanent_claim = FROM
				}
			}
			H77 = {
				every_owned_province = {
					add_permanent_claim = FROM
				}
			}
			H71 = {
				every_owned_province = {
					add_permanent_claim = FROM
				}
			}
			I16 = {
				every_owned_province = {
					add_permanent_claim = FROM
				}
			}
		}
	}
	g_hunting_blackbeard = {
		icon = mission_fortify_rajputana
		position = 4
		required_missions = {
			g_between_a_garnet_and_a_diamond_hard_place
		}
		trigger = {	
			serpentreach_region = {
				NOT = {
					culture_group = dwarven
				}
				type = all
			}
		}
		
		effect = {
			add_adm_power = 50
			add_prestige = 10
		}
	}
	g_the_masters_of_serpentreach = {
		icon = mission_fortify_rajputana
		position = 5
		required_missions = {
			g_hunting_blackbeard
		}
		trigger = {
			serpentreach_region = {
				owned_by = FROM
				type = all
			}
		}
		
		effect = {
			add_country_modifier = {
				name = cave_goblin_thieving_arrow
				duration = -1
			}
			swap_free_idea_group = yes
			override_country_name = USMAKLAN # Lonely Clan
		}
	}
}
g_thieving_arrow_deepwoods_column_4 = {
	slot = 4
	generic = no
	ai = yes
	potential = {
		tag = H87
		#has_country_modifier = cave_goblin_thieving_arrow
	}
	has_country_shield = yes

	g_wandering_into_woods = {
		icon = mission_fortify_rajputana
		position = 6
		required_missions = {

		}
		trigger = {	
			owns = 3065
			3065 = {
				is_core = FROM
			}
		}
		
		effect = {
			add_prestige = 10
			define_advisor = {
				type = commandant
				name = "Colk Thieving Arrow"
				skill = 1
				culture = cave_goblin
				religion = goblinic_shamanism
				discount = yes
			}
		}
	}
	g_market_sap_untapped = {
		icon = mission_fortify_rajputana
		position = 7
		required_missions = {
			g_wandering_into_woods
		}
		trigger = {	
			owns = 3035
			owns = 3032
		}
		
		effect = {
			add_country_modifier = {
				name = cave_goblin_deepwood_dividends
				duration = 7300
			}
		}
	}
	g_a_link_to_further_conquest = {
		icon = mission_fortify_rajputana
		position = 8
		required_missions = {
			g_market_sap_untapped
		}
		trigger = {
			OR = {
				owns = 3063
				owns = 3050
				owns = 3049
				owns = 3053
				owns = 3059
			}

		}
		
		effect = {
			add_country_modifier = {
				name = cave_goblin_verdant_conquest
				duration = 7300
			}
			define_general = {
				shock = 3
				fire = 4
				manuever = 4
				siege = 0
				name = "Zurgab Shadowfury"
				trait = hardy_warrior_personality
			}
		}
	}
	g_deeper_into_the_deepwoods = {
		icon = mission_fortify_rajputana
		position = 9
		required_missions = {
			g_a_link_to_further_conquest
		}
		trigger = {
			calc_true_if = {
				any_owned_province = {
					OR = {
						region = west_deepwoods_region
						region = east_deepwoods_region
					}
				}
				amount = 15
			}
		}
		
		effect = {
			add_splendor = 100
		}
	}
}

#these trees show up during the allclan civil war. Replaces generic resurce missions and special warband ones
#g_thieving_arrow_civil_war_region_column_4 = { #involves doing stuff with their spawn area
#	slot = 4
#	generic = no
#	ai = yes
#	potential = {
#		tag = H87
#		has_country_modifier = allclan_split
#	}
#	has_country_shield = yes
#
#    g_establishing_our_clan = {
#		icon = mission_fortify_rajputana
#		position = 1
#		required_missions = {
#
#		}
#		trigger = {
#
#		}
#		
#		effect = {
#			
#		}
#	}
#}