
country_decisions = {
	long_lived_theocracy_abdicate = {	
		potential = {
			has_country_modifier = long_lived_theocracy_no_abdication
		}
		
		allow = {
			always = yes
		}
	
		effect = {
			custom_tooltip = step_down_tooltip
			hidden_effect = { kill_ruler = yes }
			prestige = -50
		}
		ai_will_do = {
			factor = 1
		}
	}
}