namespace = flavour_wineport

# Fate of the Entrance Toll
country_event = {
	id = flavour_wineport.1
	title = flavour_wineport.1.t
	desc = flavour_wineport.1.d
	picture = COLONIZATION_eventPicture
	
	is_triggered_only = yes
	
	# End the Toll
	option = {
		name = flavour_wineport.1.a
		add_treasury = -200
		14 = {
			add_province_modifier = {
				name = ended_entrance_toll
				duration = -1
			}
		}
		ai_chance = { factor = 1 }
	}
	
	# Leave it
	option = {
		name = flavour_wineport.1.b
		add_treasury = 200
		event_target:wineport_sponsor = {
			add_opinion = {
				who = ROOT
				modifier = renegaded_sponsorship
				years = 50
			}
		}
		set_country_flag = kept_toll
		ai_chance = { factor = 0 }
	}
}

# Fate of the Damesteeth
country_event = {
	id = flavour_wineport.2
	title = flavour_wineport.2.t
	desc = flavour_wineport.2.d
	picture = COLONIZATION_eventPicture
	
	is_triggered_only = yes
	
	# End the Toll
	option = {
		name = flavour_wineport.2.a
		ai_chance = { factor = 1 }
		trigger = { NOT = { has_country_flag = kept_toll } }
		11 = {
			add_province_modifier = {
				name = ended_teeth_toll
				duration = -1
			}
		}
	}
	
	# Leave it
	option = {
		name = flavour_wineport.2.b
		ai_chance = { factor = 0 }
		add_treasury = 200
		event_target:wineport_sponsor = {
			add_opinion = {
				who = ROOT
				modifier = renegaded_sponsorship
				years = 50
			}
		}
		set_country_flag = kept_toll
	}
}

# The Minar Buyout
country_event = {
	id = flavour_wineport.3
	title = flavour_wineport.3.t
	desc = flavour_wineport.3.d
	picture = DIPLOMACY_eventPicture
	
	is_triggered_only = yes
	
	# Accept
	option = {
		name = flavour_wineport.3.a
		tooltip = { A16 = { vassalize = A10 } }
		add_treasury = 150
		FROM = { country_event = { id = flavour_wineport.4 days = 7 } }
		set_global_flag = minar_accepts_buyout
		ai_chance = {
			factor = 1
			modifier = {
				factor = 0
				total_development = A16
			}
		}
	}
	
	# Reject
	option = {
		name = flavour_wineport.3.b
		set_global_flag = minar_rejects_buyout
		FROM = { country_event = { id = flavour_wineport.4  days = 7 } }
		ai_chance = {
			factor = 1
			modifier = {
				factor = 0
				NOT = { total_development = A16 }
			}
		}
	}
}

# Minar's reponse
country_event = {
	id = flavour_wineport.4
	title = flavour_wineport.4.t
	desc = flavour_wineport.4.d
	picture = DIPLOMACY_eventPicture
	
	is_triggered_only = yes
	
	after = {
		clr_global_flag = minar_accepts_buyout
		clr_global_flag = minar_rejects_buyout
	}
	
	# They accepted
	option = {
		name = flavour_wineport.4.a
		trigger = { has_global_flag = minar_accepts_buyout }
		ai_chance = {
			factor = 1
		}
		vassalize = A10
	}
	
	# They Rejected
	option = {
		name = flavour_wineport.4.b
		trigger = { has_global_flag = minar_rejects_buyout }
		ai_chance = {
			factor = 1
		}
		add_treasury = 200
		A10 = {
			every_owned_province = {
				limit = { NOT = { is_core = ROOT } NOT = { is_permanent_claim = ROOT } }
				add_claim = ROOT
			}
		}
	}
}

# Secrets of the Red Lineage - Start
country_event = {
	id = flavour_wineport.5
	title = flavour_wineport.5.t
	desc = flavour_wineport.5.d
	picture = CITY_VIEW_eventPicture
	
	is_triggered_only = yes
	
	# Use force
	option = {
		name = flavour_wineport.5.a
		ai_chance = {
			factor = 1
		}
		add_treasury = -300
		67 = {
			add_nationalism = 10
		}
		hidden_effect = { country_event = { id = flavour_wineport.6 days = 730 random = 182 } }
	}
	
	# Big offer of money
	option = {
		name = flavour_wineport.5.b
		ai_chance = {
			factor = 1
		}
		add_treasury = -500
		hidden_effect = { country_event = { id = flavour_wineport.6 days = 365 random = 182 } }
	}
}

# Secrets of the Red Lineage - End
country_event = {
	id = flavour_wineport.6
	title = flavour_wineport.6.t
	desc = flavour_wineport.6.d
	picture = MERCHANTS_TALKING_eventPicture
	
	is_triggered_only = yes
	
	# Purchase the information we need
	option = {
		name = flavour_wineport.6.a
		ai_chance = {
			factor = 1
		}
		add_treasury = -300
		add_prestige = 20
		upgrade_wineport_wines = yes
	}
	
	# Threaten them, then burn the building to the ground
	option = {
		name = flavour_wineport.6.b
		ai_chance = {
			factor = 1
		}
		add_prestige = -10
		upgrade_wineport_wines = yes
	}
}

# Liquid Sunlight Trade Route - The arrival
country_event = {
	id = flavour_wineport.7
	title = flavour_wineport.7.t
	desc = flavour_wineport.7.d
	picture = COLONIZATION_eventPicture
	
	is_triggered_only = yes
	
	after = {
		hidden_effect = {
			country_event = { id = flavour_wineport.8 days = 60 }
			country_event = { id = flavour_wineport.9 days = 90 }
			country_event = { id = flavour_wineport.10 days = 150 }
		}
	}
	
	# Greet the local ruler/their representative
	option = {
		name = flavour_wineport.7.a
		ai_chance = {
			factor = 1
		}
	}
	
	# Present them with gifts
	option = {
		name = flavour_wineport.7.b
		ai_chance = {
			factor = 1
		}
		add_prestige = 10
		add_treasury = -200
		event_target:wineport_bulwar_contact = {
			add_opinion = {
				who = ROOT
				modifier = wineport_gave_gifts
				years = 25
			}
		}
	}
}

# Liquid Sunlight Trade Route - Touring the Brewery
country_event = {
	id = flavour_wineport.8
	title = flavour_wineport.8.t
	desc = flavour_wineport.8.d
	picture = MERCHANTS_TALKING_eventPicture
	
	
	is_triggered_only = yes
	
	# One of them wants to join us!
	option = {
		name = flavour_wineport.8.a
		ai_chance = {
			factor = 1
		}
		add_treasury = -300
		101 = {
			add_base_production = 1
		}
	}
	
	# Cut to the chase
	option = {
		name = flavour_wineport.8.b
		ai_chance = {
			factor = 1
		}
		add_treasury = -100
	}
}

# Liquid Sunlight Trade Route - Hitting on an elf, ok in Lencenor, not ok in Bulwar
country_event = {
	id = flavour_wineport.9
	title = flavour_wineport.9.t
	desc = flavour_wineport.9.d
	picture = ACCUSATION_eventPicture
	
	is_triggered_only = yes
	
	# Sanction them
	option = {
		name = flavour_wineport.9.a
		ai_chance = {
			factor = 1
		}
		add_dip_power = -50
	}
	
	# So what
	option = {
		name = flavour_wineport.9.b
		ai_chance = {
			factor = 1
		}
		add_prestige = -5
		event_target:wineport_bulwar_contact = {
			add_opinion = {
				who = ROOT
				modifier = wineport_culture_clash
				years = 10
			}
		}
	}
}

# Liquid Sunlight Trade Route - Final Details
country_event = {
	id = flavour_wineport.10
	title = flavour_wineport.10.t
	desc = flavour_wineport.10.d
	picture = DIPLOMACY_eventPicture
	
	is_triggered_only = yes
	
	# Great Success!
	option = {
		name = flavour_wineport.10.a
		ai_chance = {
			factor = 1
		}
		trigger = { 
			event_target:wineport_bulwar_contact = {
				has_opinion = {
					who = ROOT
					value = 199
				}
			}
		}
		
		add_treasury = 300
		101 = {
			add_base_production = 1
		}
		add_country_modifier = {
			name = wineport_great_deal
			duration = 3650
		}
		upgrade_wineport_wines = yes
	}
	
	# Good Deal Struck
	option = {
		name = flavour_wineport.10.b
		ai_chance = {
			factor = 1
		}
		trigger = {
			NOT = {
				event_target:wineport_bulwar_contact = {
					has_opinion = {
						who = ROOT
						value = 199
					}
				}
			}
		}
		upgrade_wineport_wines = yes
	}
}